5,BH01003,9,Greg,,Wathen,,,0,156,6157816670,6155334359,,Greg.Wathen@tn.gov,
5,BH01004,9,Gary,,Clouse,,,0,156,6157816668,,,Gary.Clouse@tn.gov,
1,BH01005,9,Patrick,,Burns,,,0,12,7313366801,,,Patrick.Burns@tn.gov,
1,BH01006,9,Jared,,Poore,,,0,12,7312537160,,,Jared.Poore@tn.gov,
5,BH01010,9,Doug,,Anderson,,,0,156,6157816568,,,Doug.Anderson@tn.gov,
2,BH01011,9,Jay,C,McClellan,,,0,47,6157816546,,,Jay.C.McClellan@tn.gov,
2,BH01013,9,Marie,,Gunney,,,0,47,6157816624,,,Marie.Gunney@tn.gov,
5,BH01018,9,Kay,,Boyd,,,0,156,6157816532,,,Kay.Boyd@tn.gov,
5,BH01019,9,Mark,,Gudlin,,,0,156,6157816614,,,Mark.Gudlin@tn.gov,
5,BH01020,9,Doris,,Anderson,,,0,156,6157816528,,,Doris.Anderson@tn.gov,
5,BH01021,9,Andy,,Frost,,,0,156,6157816518,,,Andy.Frost@tn.gov,
3,BH01027,9,Saundra,,Gilmore,,,0,82,9314563057,,,Saundra.Gilmore@tn.gov,
5,BH01028,9,Don,,Crawford,,,0,156,6157816542,,,Don.Crawford@tn.gov,
2,BH01034,9,Pam,,Pitts-Linville,,,0,47,6157816633,,,Pam.Pitts-Linville@tn.gov,
2,BH01036,9,Tommy,,McCormac,,,0,47,6153556492,,,Tommy.McCormac@tn.gov,
5,BH01037,9,Rick,,Morris,,,0,156,6157816660,,,Rick.Morris@tn.gov,
5,BH01040,9,Danny,,Baggot,,,0,156,6157816647,,,Danny.Baggot@tn.gov,
5,BH01041,9,Ken,,Tarkington,,,0,156,6157816514,,,Ken.Tarkington@tn.gov,
5,BH01042,9,Betsy,,Woods,,,0,156,6157816601,,,Betsy.Woods@tn.gov,
2,BH01043,9,Todd,,StJohn,,,0,47,6157816622,,,Todd.StJohn@tn.gov,
5,BH01050,9,Fred,,Egger,,,0,156,6157816604,,,Fred.Egger@tn.gov,
3,BH01053,9,Deborah Faye,,Hood,,,0,82,9314563058,,,Deborah.Faye.Hood@tn.gov,
1,BH01056,9,Joseph,,Campbell,,,0,12,9312329333,,,Joseph.Campbell@tn.gov,
1,BH01058,9,Lisa,,Holmes,,,0,12,7314235725,,,Lisa.Holmes@tn.gov,
1,BH01059,9,Pam,,Morphis,,,0,12,7314235725,,,Pam.Morphis@tn.gov,
4,BH01060,9,Debbie,,Harris,,,0,131,4235877037,,,Debbie.Harris@tn.gov,
2,BH01063,9,Doug,,Markham,,,0,47,6157816631,,,Doug.Markham@tn.gov,
5,BH01064,9,Angela,,Keele,,,0,156,6157816598,,,Angela.Keele@tn.gov,
4,BH01070,9,Sheila,,Dalton,,,0,131,4235222440,,,Sheila.Dalton@tn.gov,
4,BH01072,9,Judy,,Adkins,,,0,131,4235877037,,,Judy.Adkins@tn.gov,
3,BH01075,9,John,,Mayer,,,0,82,9314563059,,,John.Mayer@tn.gov,
5,BH01085,9,Cindy,,Pharris,,,0,156,6157816502,,,Cindy.Pharris@tn.gov,
5,BH01086,9,Bob,,Drury,,,0,156,6157815110,,,Bob.Drury@tn.gov,
2,BH01087,9,Dwight,,Hensley,,,0,47,6157816547,,,Dwight.Hensley@tn.gov,
5,BH01089,9,Jason,,Henegar,,,0,156,6157816573,,,Jason.Henegar@tn.gov,
2,BH01092,9,Fay,,Hickerson,,,0,47,6157816641,,,Fay.Hickerson@tn.gov,
5,BH01094,9,Perita,,Johnson,,,0,156,6158376005,,,Perita.Johnson@tn.gov,
5,BH01096,9,Walter,,Cook,,,0,156,6157816652,,,Walter.Cook@tn.gov,
5,BH01098,9,Michael,,May,,,0,156,6157816639,,,Michael.May@tn.gov,
1,BH01102,9,Jim,,Hamlington,,,0,12,7314235730,,+173142357,Jim.Hamlington@tn.gov,
1,BH01103,9,Robert,,Brien,,,0,12,7314235725,7314314855,,Robert.Brien@tn.gov,
1,BH01106,9,Alan,,Johns,,,0,12,7314235725,,,Alan.Johns@tn.gov,
5,BH01107,9,Shukri,,Ghussein,,,0,156,6157815267,,,Shukri.Ghussein@tn.gov,
1,BH01108,9,William,,Morris,,,0,12,7314235725,,7319257213,William.Morris@tn.gov,
1,BH01109,9,Allen,,Pyburn,,,0,12,7314236541,,,Allen.Pyburn@tn.gov,
1,BH01110,9,Brandon,,Gilbert,,Brandon,0,12,9018780855,,,Brandon.Gilbert@tn.gov,
5,BH01111,9,Wilma,,Newsom,,,0,156,6157815260,,,Wilma.Newsom@tn.gov,
1,BH01113,9,David,,Vandegriff,,,0,12,7317380233,,,David.Vandegriff@tn.gov,
1,BH01114,10,Ashleigh,,Griggs,,,0,12,7314235725,,,Ashleigh.Griggs@tn.gov,
5,BH01116,9,Sheryl,,Holtam,,,0,156,6157816607,,,Sheryl.Holtam@tn.gov,
5,BH01117,9,Tracey,E,Boyers,,,0,156,6157816657,,,Tracey.E.Boyers@tn.gov,
5,BH01120,9,Cathi,,Lasater,,,0,156,6157816560,,,Cathi.Lasater@tn.gov,
5,BH01121,9,Debbie,,Powell,,,0,156,6158376013,,,Debbie.Powell@tn.gov,
1,BH01124,9,Reggie,,Wiggins,,,0,12,7314157808,,,Reggie.Wiggins@tn.gov,
4,BH01126,9,Jeff,S,Roberson,,,0,131,,,,Jeff.S.Roberson@tn.gov,
4,BH01127,9,Dennis,,Lindbom,,,0,131,4235877037,,,Dennis.Lindbom@tn.gov,
1,BH01128,9,Brad,,Moon,,,0,12,7312537343,,,Brad.Moon@tn.gov,
5,BH01129,9,Lorenda,,Hooper,,,0,156,6157816655,,,Lorenda.Hooper@tn.gov,
3,BH01130,10,William,,Pittman,,,0,82,6153069911,,,William.Pittman@tn.gov,
2,BH01131,9,Josh,,Hunt,,,0,47,9317979001,,,Josh.Hunt@tn.gov,
5,BH01132,9,Barry,,Sumners,,,0,156,6157816600,,,Barry.Sumners@tn.gov,
5,BH01134,9,Rob,,Todd,,,0,156,6157816572,,,Rob.Todd@tn.gov,
1,BH01139,9,Brian,,Elkins,,,0,12,7314235725,,,Brian.Elkins@tn.gov,
5,BH01142,9,Raleigh,,Holtam,,,0,156,6157816509,,,Raleigh.Holtam@tn.gov,
2,BH01144,9,Richard,,Kirk,,,0,47,6158376020,,,Richard.Kirk@tn.gov,
1,BH01146,9,Lance,,Rider,,,0,12,7315847678,,,Lance.Rider@tn.gov,
2,BH01147,9,Russ,,Skoglund,,,0,47,6157816622,,,Russ.Skoglund@tn.gov,
1,BH01150,9,William,R,Garton,,Ray,0,12,7314235725,,,William.R.Garton@tn.gov,
1,BH01151,9,Dave,,Gabbard,,,0,12,8003723928,,,Dave.Gabbard@tn.gov,
1,BH01152,9,Rob,,Dougherty,,,0,12,7317495587,,,Rob.Dougherty@tn.gov,
1,BH01153,9,Dan,,Fuqua,,,0,12,7314235725,,,Dan.Fuqua@tn.gov,
1,BH01155,9,Robert Neal,,Smith,,,0,12,7314235725,,,Robert.Neal.Smith@tn.gov,
1,BH01156,9,Jeremy,,Clark,,,0,12,7314991142,,,Jeremy.Clark@tn.gov,
4,BH01157,9,Jerry,,Strom,,,0,131,4235877037,,,Jerry.Strom@tn.gov,
1,BH01158,9,James,,Beaty,,,0,12,7314235725,,,James.Beaty@tn.gov,
1,BH01160,9,Tim,,Broadbent,,,0,12,7314235734,,,Tim.Broadbent@tn.gov,
5,BH01161,9,Chris,,Hunter,,,0,156,7317721822,x115,,Chris.Hunter@tn.gov,
5,BH01163,9,Mike,,Stockdale,,,0,156,7315933568,,,Mike.Stockdale@tn.gov,
4,BH01164,9,Dorothy,,Necessary,,,0,131,4235877037,,,Dorothy.Necessary@tn.gov,
3,BH01165,9,Brenda Kay,,York,,,0,82,9314563060,,,Brenda.Kay.York@tn.gov,
1,BH01168,9,Damon,,Boyce,,,0,12,7314235725,,,Damon.Boyce@tn.gov,
1,BH01169,9,Sam,,Murrey,,,0,12,9012133124,,,Sam.Murrey@tn.gov,
5,BH01170,9,Dave,,McKinney,,,0,156,6157816577,,,Dave.McKinney@tn.gov,
1,BH01172,9,Ted,,Wells,,,0,12,7314235725,,,Ted.Wells@tn.gov,
1,BH01173,9,Andrew,,Rutherford,,,0,12,7314235725,,,Andrew.Rutherford@tn.gov,
1,BH01175,9,Alan,,Peterson,,,0,12,7314235725,,,Alan.Peterson@tn.gov,
1,BH01178,9,Brian,,Thompson,,,0,12,7314235725,,,Brian.Thompson@tn.gov,
1,BH01179,9,Grady Joe,,Guin,,,0,12,7314235725,,,Grady.Joe.Guin@tn.gov,
1,BH01182,9,Ed,,Harsson,,,0,12,7314235725,,,Ed.Harsson@tn.gov,
1,BH01184,9,Pete,,Creech,,,0,12,7314235725,,,Pete.Creech@tn.gov,
1,BH01185,9,Jim,,Verner,,,0,12,7315847678,,,Jim.Verner@tn.gov,
1,BH01188,9,Amy,,Snider,,,0,12,7314235725,,,Amy.Snider@tn.gov,
1,BH01189,9,Casey,,Parker,,,0,12,7314235725,,,Casey.Parker@tn.gov,
1,BH01190,9,Steve,,Brewer,,,0,12,7314235725,,,Steve.Brewer@tn.gov,
1,BH01191,9,Nathan,,Warden,,,0,12,7314235725,,,Nathan.Warden@tn.gov,
1,BH01193,9,Patrick,,Lemons,,,0,12,7312858019,,,Patrick.Lemons@tn.gov,
1,BH01194,9,Chad,,Harden,,,0,12,7312652182,,,Chad.Harden@tn.gov,
1,BH01195,9,Steve,,Henderson,,,0,12,7314235725,,,Steve.Henderson@tn.gov,
1,BH01196,9,David,A,Tweed,,,0,12,7314235725,,,David.A.Tweed@tn.gov,
1,BH01197,9,Stephen,,Graves,,,0,12,7314235725,6153395444,,Stephen.Graves@tn.gov,
1,BH01198,9,Robert,,Shannon,,,0,12,7314235725,,,Robert.Shannon@tn.gov,
1,BH01199,9,Dee,,Funderburk,,,0,12,7314235725,,,Dee.Funderburk@tn.gov,
3,BH01200,9,Ben,,Layton,,,0,82,9314563061,,,Ben.Layton@tn.gov,
3,BH01201,9,Kim,,Raby,,,0,82,9314563083,,,Kim.Raby@tn.gov,
2,BH01204,9,Dick,,Stark,,,0,47,6157816581,,,Dick.Stark@tn.gov,
3,BH01205,9,Jack,,Swearengin,,,0,82,9314849571,,,Jack.Swearengin@tn.gov,
3,BH01206,9,David,,Young,,,0,82,9314563055,,,David.Young@tn.gov,
5,BH01207,9,Barbara,,Goodhart,,,0,156,6157816539,,,Barbara.Goodhart@tn.gov,
4,BH01208,9,Brian,,Ripley,,,0,131,4235222456,,,Brian.Ripley@tn.gov,
4,BH01209,9,Rick,,Bivens,,,0,131,4235877037,,,Rick.Bivens@tn.gov,
5,BH01211,9,Charlie,,Phipps,,,0,156,6157816584,6154789935,,Charlie.Phipps@tn.gov,
4,BH01213,9,Scott,,Dykes,,,0,131,8003320900,x112,,Scott.Dykes@tn.gov,
5,BH01215,9,Barbara,,Hayes,,,0,156,6157816552,,,Barbara.Hayes@tn.gov,
5,BH01218,9,Ed,,Carter,,,0,156,6157816552,,,Ed.Carter@tn.gov,
2,BH01220,9,Tim,-,Turrentine,,,0,47,6156418896,,,Tim.Turrentine@tn.gov,
4,BH01222,9,John,C,Gregory,,,0,131,4235222443,6155334360,,John.C.Gregory@tn.gov,
5,BH01223,9,Della,,Sawyers,,,0,156,6157816577,,,Della.Sawyers@tn.gov,
2,BH01225,9,Mary Beth,,Hudspeth,,,0,47,6157816581,,,Mary.Beth.Hudspeth@tn.gov,
2,BH01226,9,John,,Dawson,,,0,47,6157816581,,,John.Dawson@tn.gov,
5,BH01227,9,Mike,,Bramlett,,,0,156,6157816592,,,Mike.Bramlett@tn.gov,
3,BH01229,9,Ronnie,,Riddle,,,0,82,9314563083,,,Ronnie.Riddle@tn.gov,
5,BH01230,9,Harry,,Furkins,,,0,156,6157816593,,,Harry.Furkins@tn.gov,
2,BH01231,9,Trina,,Shelton,,,0,47,6157816658,,,Trina.Shelton@tn.gov,
2,BH01233,9,Jim,,Hooper,,,0,47,6157816581,6153305211,,Jim.Hooper@tn.gov,
5,BH01235,9,Jeanette,,Jones,,,0,156,6157816534,,,Jeanette.Jones@tn.gov,
2,BH01236,9,Jeff,,Hummel,,,0,47,9313644558,,,Jeff.Hummel@tn.gov,
2,BH01240,9,Tim,L,Hancock,,,0,47,6153321944,,,Tim.L.Hancock@tn.gov,
2,BH01241,9,Mark,,McNeese,,,0,47,9313344983,,,Mark.McNeese@tn.gov,
2,BH01242,9,Tim,,Cleveland,,,0,47,6157816625,,,Tim.Cleveland@tn.gov,
2,BH01244,9,Mitch,,Bailey,,,0,47,6157815108,,,Mitch.Bailey@tn.gov,
2,BH01245,9,Cape,,Taylor,,J Cape Taylor,0,47,6157816646,,,Cape.Taylor@tn.gov,
2,BH01246,9,Josh,,Campbell,,,0,47,6157816626,,,Josh.Campbell@tn.gov,
2,BH01250,9,Travis,,Lorance,,,0,47,9318573417,,,Travis.Lorance@tn.gov,
2,BH01252,9,Mack,,Motes,,,0,47,9318573417,,,Mack.Motes@tn.gov,
2,BH01253,9,Barbara,,Bryan,,,0,47,9318573417,,,Barbara.Bryan@tn.gov,
2,BH01254,9,Nathan,,Singer,,,0,47,9318573417,,,Nathan.Singer@tn.gov,
3,BH01255,9,Dustin,,Thames,,,0,82,9312001575,,,Dustin.Thames@tn.gov,
1,BH01257,9,Dylan,,Cox,,,0,12,7314224171,,,Dylan.Cox@tn.gov,
1,BH01258,9,Dan,,Johnson,,,0,12,7314235723,,,Dan.Johnson@tn.gov,
1,BH01259,9,Terry,,Moore,,,0,12,7314235725,9018261361,,Terry.Moore2@tn.gov,
1,BH01260,9,Jesse,,Eaker,,,0,12,7316873444,,,Jesse.Eaker@tn.gov,
1,BH01261,9,John,B,Dunn,,,0,12,,,,John.B.Dunn@tn.gov,
1,BH01262,9,Brandi,,Johnson,,,0,12,7314235784,7316956546,,Brandi.Johnson@tn.gov,
3,BH01300,9,Kirk,,Miles,,,0,82,9314563064,,,Kirk.Miles@tn.gov,
1,BH01301,9,Keith,,Mitchell,,,0,12,7314235725,,,Keith.Mitchell@tn.gov,
3,BH01302,9,Dwight,,Wright,,,0,82,9314563083,,,Dwight.Wright@tn.gov,
1,BH01303,9,Daniel,,Plunkett,,,0,12,7316975227,,,Daniel.Plunkett@tn.gov,
1,BH01304,9,Chase,,Taylor,,,0,12,7316975227,,,Chase.Taylor@tn.gov,
5,BH01305,9,Susan,,Lanier,,,0,156,6157816540,,,Susan.Lanier@tn.gov,
5,BH01306,9,Lynn,,Barrett,,,0,156,6157816535,,,Lynn.Barrett@tn.gov,
3,BH01307,9,Bobby,,Brown,,,0,82,9314563066,,,Bobby.Brown@tn.gov,
3,BH01308,9,Brandon,B,Lee,,,0,82,9314849571,,,Brandon.Lee@tn.gov,
2,BH01310,9,Mark,,Vance,,,0,47,7316975225,,,Mark.Vance@tn.gov,
3,BH01312,9,James,,Akins,,Wally,0,82,9314563056,,,James.Akins@tn.gov,
3,BH01314,9,Matt,,Clarey,,,0,82,9314563067,9312608897,,Matt.Clarey@tn.gov,
3,BH01315,9,Joe,,Mcspadden,,,0,82,7316975240,,,Joe.Mcspadden@tn.gov,
3,BH01324,9,Marc,,Lipner,,,0,82,9314563069,,,Marc.Lipner@tn.gov,
3,BH01325,9,Russell,,Vandergriff,,,0,82,9314849571,,,Russell.Vandergriff@tn.gov,
3,BH01326,9,Joe,,Busch,,,0,82,9314563070,4236936822,,Joe.Busch@tn.gov,
5,BH01327,9,Glenn,,Moates,,,0,156,6157816684,,,Glenn.Moates@tn.gov,
3,BH01329,9,Kyle,K,Walling,,,0,82,9314849571,,,Kyle.Walling@tn.gov,
3,BH01330,9,Ben,,Davis,,,0,82,9314849571,,,Ben.Davis@tn.gov,
3,BH01332,9,Marcie,,Green,,,0,82,9314563071,,,Marcie.Green@tn.gov,
3,BH01334,9,Paula,S,Brown,,,0,82,9314563072,,,Paula.S.Brown@tn.gov,
3,BH01335,9,Tim,M,Poole,,,0,82,4237756687,,,Tim.M.Poole@tn.gov,
3,BH01336,9,Danny,J,Stone,,,0,82,4232432676,,,Danny.J.Stone@tn.gov,
3,BH01340,9,Bobby,,Buttram,,,0,82,9314562479,,,Bobby.Buttram@tn.gov,
3,BH01343,9,Rick,,Moats,,,0,82,9314562479,,,Rick.Moats@tn.gov,
3,BH01344,9,Jerry,,Pugh,,,0,82,9314562479,,,Jerry.Pugh@tn.gov,
3,BH01345,9,Mike,,Scarbrough,,,0,82,9314562479,,,Mike.Scarbrough@tn.gov,
3,BH01347,9,Tony,,Cross,,,0,82,8002626704,,,Tony.Cross@tn.gov,
3,BH01348,9,Shawn,,Edgmon,,,0,82,9314844481,,,Shawn.Edgmon@tn.gov,
3,BH01350,9,Mark,,Patterson,,,0,82,8002426704,,,Mark.Patterson@tn.gov,
3,BH01351,9,Marty,,Griffith,,,0,82,6153325296,,,Marty.Griffith@tn.gov,
3,BH01353,9,Jon,,Ryan,,,0,82,8002626704,,,Jon.Ryan@tn.gov,
3,BH01354,9,Jason,R,Miller,,,0,82,9314849571,,,Jason.R.Miller@tn.gov,
3,BH01356,9,Travis,,Cowan,,,0,82,9317830392,,,Travis.Cowan@tn.gov,
5,BH01357,9,Tracey,,Sovine,,,0,156,6157816524,,,Tracey.Sovine@tn.gov,
5,BH01358,9,Aaron,,Todd,,,0,156,6157816580,,,,
5,BH01359,9,Michael,,McCord,,Michael,0,156,9315286472,,,Michael.McCord@tn.gov,
4,BH01402,9,John,,Mike,,,0,131,8003320900,,,John.Mike@tn.gov,
4,BH01403,9,Steve,,Bennett,,Steve,0,131,4235877037,,,Steve.Bennett@tn.gov,
4,BH01404,9,Tony,,Hickle,,Tony,0,131,4235877037,,,Tony.Hickle@tn.gov,
4,BH01406,9,Jim,,Habera,,,0,131,4235877037,,,Jim.Habera@tn.gov,
4,BH01407,9,Jimmy,,Miller,,,0,131,4235622013,,,Jimmy.Miller@tn.gov,
0,BH01408,9,Dale,,White,,,0,0,7312652024,,,Dale.White@tn.gov,
4,BH01409,9,Wade,,Young,,,0,131,4235577626,,,Wade.Young@tn.gov,
4,BH01412,9,Dan,,Gibbs,,,0,131,8003320900,,,Dan.Gibbs@tn.gov,
4,BH01413,9,Becky,,Hensley,,,0,131,4235877037,,,Becky.Hensley@tn.gov,
4,BH01414,9,Jackie,,Hale,,,0,131,4235877037,,,Jackie.Hale@tn.gov,
4,BH01415,9,Shawnna,Y,Smith,,,0,131,4235222441,8652354408,,Shawnna.Smith@tn.gov,
4,BH01421,9,Matthew,T,Cameron,,Matt,0,131,4235222473,8653007601,,Matthew.Cameron@tn.gov,
4,BH01423,9,Rick,,Brantley,,,0,131,8652783248,,,Rick.Brantley@tn.gov,
4,BH01424,9,Wayne,,Ellison,,,0,131,8652783248,,,Wayne.Ellison@tn.gov,
4,BH01452,9,Richard,,Singleton,,,0,131,4235877037,,,Richard.Singleton@tn.gov,
4,BH01454,9,Bart,,Carter,,,0,131,4235877037,,,Bart.Carter@tn.gov,
4,BH01455,9,Carl,E,Williams,,,0,131,4235877037,,,Carl.E.Williams@tn.gov,
4,BH01456,9,Willard,,Perryman,,,0,131,4235877037,,,Willard.Perryman@tn.gov,
4,BH01457,9,Christina,,Young,,,0,131,4235877037,,,Christina.Young@tn.gov,
4,BH01458,9,John,,Hammonds,,,0,131,4235222474,,,John.Hammonds@tn.gov,
4,BH01459,9,George,,Birdwell,,,0,131,4235877037,,,George.Birdwell@tn.gov,
4,BH01460,9,Andrew,P,Collins,,,0,131,,,,Andrew.P.Collins@tn.gov,
4,BH01461,9,Rusty,,Dunn,,,0,131,4235622013,,,Rusty.Dunn@tn.gov,
4,BH01464,9,Mitch,,Clure,,,0,131,4235877037,,,Mitch.Clure@tn.gov,
4,BH01467,9,Scott,,Hollenbeck,,,0,131,4235877037,4236936809,,Scott.Hollenbeck@tn.gov,
4,BH01468,9,David,,Sams,,,0,131,4235877037,,,David.Sams@tn.gov,
4,BH01469,9,Wes,,Tilley,,,0,131,4235877037,,,Wes.Tilley@tn.gov,
4,BH01470,9,Jim,,Negus,,,0,131,8653773957,8656611691,,Jim.Negus@tn.gov,
4,BH01492,9,Michael,,Cavins,,,0,131,4235877037,,,Michael.Cavins@tn.gov,
4,BH01500,9,Tim,,Sain,,,0,131,4235877037,4236936819,,Tim.Sain@tn.gov,
5,BH01501,9,Timothy,,White,,,0,156,6157816620,,,Timothy.White@tn.gov,
5,BH01502,9,Frank,,Fiss,,,0,156,6157816519,,,Frank.Fiss@tn.gov,
5,BH01504,9,Bill,,Reeves,,,0,156,6157816645,,,Bill.Reeves@tn.gov,
5,BH01505,9,Richard,,Youngs,,,0,156,6157816676,,,Richard.Youngs@tn.gov,
5,BH01507,9,Tracy,,Porter,,,0,156,6157815278,,,Tracy.Porter@tn.gov,
2,BH01509,9,Polly,,Rooker,,,0,47,6157816622,,,Polly.Rooker@tn.gov,
5,BH01512,9,Tim,,Churchill,,,0,156,6157816645,,,Tim.Churchill@tn.gov,
5,BH01516,9,Sandra,,Chesterfield,,,0,156,6157816536,,,Sandra.Chesterfield@tn.gov,
5,BH01517,9,Be,,Le,,,0,156,6157816528,,,Be.Le@tn.gov,
0,BH01520,9,Harold,,Cannon,,,0,0,,,,Harold.Cannon@tn.gov,
0,BH01521,9,Trey,,Teague,,,0,0,,,,Trey.Teague@tn.gov,
0,BH01522,9,Jim,,Bledsoe,,,0,0,,,,Jim.Bledsoe@tn.gov,
5,BH01524,9,Don,,King,,,0,156,6157816507,,,Don.King@tn.gov,
5,BH01525,9,Lee,,Wilmot,,,0,156,6157816508,,,Lee.Wilmot@tn.gov,
5,BH01526,9,Danette,,Waugh,,,0,156,6157816557,,,Danette.Waugh@tn.gov,
5,BH01527,9,Becky,,Gunn,,,0,156,6157816577,,,Becky.Gunn@tn.gov,
5,BH01529,9,Don,,Hosse,,,0,156,6157816541,,,Don.Hosse@tn.gov,
5,BH01530,9,Bobby,,Wilson,,,0,156,6157816557,,,Bobby.Wilson@tn.gov,
5,BH01532,9,Melissa,,Barbee,,,0,156,6156004867,,,Melissa.Barbee@tn.gov,
5,BH01534,9,Annette,,Lancaster,,,0,156,6157816544,,,Annette.Lancaster@tn.gov,
4,BH01535,9,Aubrey,,Deck,,,0,131,4236936855,,,Aubrey.Deck@tn.gov,
2,BH01536,9,David,M,Sims,,,0,47,6157816622,6152935237,,David.M.Sims@tn.gov,
5,BH01537,9,Darren,,Rider,,,0,156,6157816669,,,Darren.Rider@tn.gov,
5,BH01538,9,Pandy,,English,,,0,156,6157816643,,,Pandy.English@tn.gov,
5,BH01539,9,Randy,,Huskey,,,0,156,,,,Randy.Huskey@tn.gov,
3,BH01540,9,Brandon,,Ragland,,,0,82,4234761404,9318817225,,Brandon.Ragland@tn.gov,
5,BH01541,9,Carol,,Sawyers,,,0,156,6157816562,,,Carol.Sawyers@tn.gov,
5,BH01542,9,Arlene,,Webb,,,0,156,6157816587,,,Arlene.Webb@tn.gov,
5,BH01543,9,Raymond,,Buford,,,0,156,6157816593,,,Raymond.Buford@tn.gov,
5,BH01544,9,Daryl,,Ratajczak,,,0,156,6157816609,,,Daryl.Ratajczak@tn.gov,
5,BH01545,9,Gray,,Anderson,,,0,156,6157816613,,,Gray.Anderson@tn.gov,
2,BH01546,9,Denise,,Ryan,,,0,47,6157816526,,,Denise.Ryan@tn.gov,
5,BH01547,9,Alceyone,,Arnold,,,0,156,6157816507,,,Alceyone.Arnold@tn.gov,
5,BH01548,9,Brian,,Telford,,,0,156,6157816532,,,Brian.Telford@tn.gov,
5,BH01549,9,Josh,D,Emerson,,,0,156,7316121414,,,Josh.Emerson@tn.gov,
5,BH01550,10,Sandra,,Moseley,,,0,156,6158386387,,,Sandra.Moseley@tn.gov,
5,BH01551,9,Barbara,,Tune,,,0,156,6157816555,,,Barbara.Tune@tn.gov,
5,BH01552,9,Barbara,,Shaffer,,,0,156,6152107862,,,Barbara.Shaffer@tn.gov,
5,BH01553,9,Susan,C,Mann,,,0,156,6157816560,,,Susan.C.Mann@tn.gov,
3,BH01555,9,Matt,,Price,,,0,82,8002626704,4237168482,4237165760,Matt.Price@tn.gov,
5,BH01556,9,Rebekah,,Allen,,,0,156,6157816589,,,Rebekah.Allen@tn.gov,
4,BH01557,9,James Mike,,Smith,,,0,131,8654575135,,,James.Mike.Smith@tn.gov,
5,BH01558,9,Tom,,Wochna,,,0,156,6157816663,,,Tom.Wochna@tn.gov,
2,BH01559,9,Richard,,Gilliam,,,0,47,8652079133,,,Richard.Gilliam@tn.gov,
5,BH01561,9,Clint,,Borum,,,0,156,,,,Clint.Borum@tn.gov,
5,BH01562,9,Melissa,,Raulerson,,,0,156,6157701919,,,Melissa.Raulerson@tn.gov,
5,BH01563,9,Susie,,Spriggs,,,0,156,6157816553,,,Susie.Spriggs@tn.gov,
2,BH01565,9,Melissa,,Jamieson,,,0,47,6157816545,,,Melissa.Jamieson@tn.gov,
5,BH01567,9,Jeff,,Green,,,0,156,6157816664,,,Jeff.Green@tn.gov,
5,BH01568,9,Amy,,Osborne,,,0,156,,,,Amy.Osborne@tn.gov,
2,BH01570,9,Pat,,Black,,,0,47,6157816574,,,Pat.Black@tn.gov,
5,BH01571,9,Stephanie,,Palm,,,0,156,6158374256,,,Stephanie.Palm@tn.gov,
5,BH01572,9,Marilyn,,Maffett,,,0,156,6157816603,,,Marilyn.Maffett@tn.gov,
5,BH01574,9,Sonya,,Northrup,,,0,156,6157816621,,,Sonya.Northrup@tn.gov,
5,BH01575,9,Zainab,,Latif,,,0,156,6157815103,,,Zainab.Latif@tn.gov,
5,BH01576,9,Michildira,,Lee,,,0,156,6157816513,,,Michildira.Lee@tn.gov,
2,BH01578,9,Tabitha,,Lavacot,,,0,47,6157816632,,,Tabitha.Lavacot@tn.gov,
5,BH01580,9,Carol,,Whited,,,0,156,6157816595,,,Carol.Whited@tn.gov,
5,BH01584,9,Eric,,Ganus,,,0,156,6157816579,,,Eric.Ganus@tn.gov,
5,BH01585,9,Scott,,Denton,,,0,156,6158376011,,,Scott.Denton@tn.gov,
5,BH01586,9,Roger,,Applegate,,,0,156,6157816616,,,Roger.Applegate@tn.gov,
0,BH01587,9,Don,W,Hubbs,,,0,0,7315849032,,,Don.W.Hubbs@tn.gov,
2,BH01588,9,Linda,,MacDonald,,,0,47,6157701910,,,Linda.MacDonald@tn.gov,
5,BH01591,9,Gayle,,Hartman,,,0,156,6157816568,,,Gayle.Hartman@tn.gov,
5,BH01592,9,Patsy,,Daily,,,0,156,,,,Patsy.Daily@tn.gov,
5,BH01593,9,Alicia,,Cheasty,,,0,156,6157816590,,,Alicia.Cheasty@tn.gov,
5,BH01594,10,Kate,,Hamm,,,0,156,6157816562,,,Kate.Hamm@tn.gov,
5,BH01596,9,Ben,,Pugh,,,0,156,6157816506,,,Ben.Pugh@tn.gov,
2,BH01597,9,Brad,,Bagwell,,,0,47,6157816581,,,Brad.Bagwell@tn.gov,
2,BH01599,9,Jim,,Pipas,,,0,47,6157816628,,,Jim.Pipas@tn.gov,
1,BH01601,9,Seth,,Snow,,,0,12,,,,Seth.Snow@tn.gov,
1,BH01602,9,Nathanael,,Thompson,,,0,12,,,,Nathanael.Thompson@tn.gov,
0,BH01610,9,Randy,,Cromer,,,0,0,,,,Randy.Cromer@tn.gov,
0,BH01611,9,Justin,,Hallett,,,0,0,,6159137835,,Justin.Hallett@tn.gov,
1,BH01612,9,Andrew,,Pruitt,,,0,12,7315847678,,,Andrew.Pruitt@tn.gov,
1,BH01613,9,James,,Hatchett,,,0,12,7314235725,,,James.Hatchett@tn.gov,
0,BH01615,9,Brian,,Vitt,,,0,0,,,,Brian.Vitt@tn.gov,
0,BH01616,9,Keenan,,Lamberth,,,0,0,,,,Keenan.Lamberth@tn.gov,
1,BH01617,9,Ben,,Edwards,,,0,12,7317843889,,,Ben.Edwards@tn.gov,
1,BH01618,9,Brandon,,French,,,0,12,7315847679,,,Brandon.French@tn.gov,
1,BH01619,9,Jackie,,Childress,,,0,12,,,,Jackie.Childress@tn.gov,
1,BH01620,9,Jimmy,,Griffin,,,0,12,,,,Jimmy.Griffin@tn.gov,
1,BH01621,9,Jim,,Mullikin,,,0,12,7317495587,,,Jim.Mullikin@tn.gov,
1,BH01622,9,Rickey,,Quick,,,0,12,7317495587,,,Rickey.Quick@tn.gov,
1,BH01623,9,Teddy,,Hobbs,,,0,12,7317495587,,,Teddy.Hobbs@tn.gov,
0,BH01624,9,Brandon,,Harrison,,,0,0,7315847679,,,Brandon.Harrison@tn.gov,
0,BH01625,9,John,,Curtis,,,0,0,7315847679,,,John.Curtis@tn.gov,
0,BH01626,9,Kenneth,,Cox,,,0,0,7315847679,,,Kenneth.Cox@tn.gov,
1,BH01627,9,Walter,,Collins,,,0,12,9016527528,,,Walter.Collins@tn.gov,
1,BH01628,9,Robert,,DuBois,,,0,12,9016527528,,,Robert.Dubois@tn.gov,
1,BH01629,9,Jerry,,Heimlicher,,,0,12,9016527528,,,Jerry.Heimlicher@tn.gov,
1,BH01630,9,Ethan,,Mullins,,,0,12,7314235784,7312176901,,Ethan.Mullins@tn.gov,
1,BH01631,9,Ginger,,Kuykendall,,,0,12,7314235786,,,Ginger.Kuykendall@tn.gov,
5,BH01700,9,Jennifer,,Burnett,,,0,156,6157816596,,,Jennifer.Burnett@tn.gov,
5,BH01701,9,Tracy,,Smith,,,0,156,6157816531,,,Tracy.Smith@tn.gov,
2,BH01702,9,Mike,,Murdock,,,0,47,6157816581,,,Mike.Murdock@tn.gov,
2,BH01703,9,Dale,,Grandstaff,,,0,47,6157816581,,,Dale.Grandstaff@tn.gov,
1,BH01704,9,Bill,C,Ward,,Bill,0,12,7314235784,,,Bill.Ward@tn.gov,
1,BH01705,9,Ricky,O,Lyle,,Ricky,0,12,7314235725,,,Ricky.Lyle@tn.gov,
1,BH01706,9,Brandon,S,Gavrock,,,0,12,7314235725,,,Brandon.Gavrock@tn.gov,
2,BH01707,9,Josh,D,Landrum,,Josh,0,47,9013783783,,,Josh.Landrum@tn.gov,
1,BH01708,9,Joel,C,Hyden,,,0,12,7314235725,,,Joel.Hyden@tn.gov,
1,BH01709,9,Tim,,Ward,,Tim,0,12,7314235725,,,Tim.Ward@tn.gov,
1,BH01710,9,Matt,,Canada,,Matt,0,12,7314235725,,,Matt.Canada@tn.gov,
1,BH01711,9,Brad,L,Northcutt,,,0,12,7314235725,,,Brad.Northcutt@tn.gov,
5,BH01712,9,Sam,,Turner,,Sam,0,156,7312256173,7316764832,,Sam.Turner@tn.gov,
4,BH01713,9,John,M,Ripley,,,0,131,7314235725,,,John.Ripley@tn.gov,
1,BH01715,9,Bobby,,Norris,,,0,12,7314235725,,,Bobby.Norris@tn.gov,
1,BH01716,9,Keith,D,Peach,,,0,12,7314235725,,,Keith.Peach@tn.gov,
1,BH01717,9,Tony,L,Duncan,,,0,12,7314235725,,,Tony.Duncan@tn.gov,
1,BH01718,9,Greg,G,Barker,,,0,12,7314235725,,,Greg.Barker@tn.gov,
1,BH01719,9,Terry,D,Williams,,,0,12,7314235725,,,Terry.Williams@tn.gov,
1,BH01720,9,Patrick,,Johnson,,Patrick,0,12,7313523413,,,Patrick.Johnson@tn.gov,
1,BH01721,9,Tim,,Long,,,0,12,7312537343,,,Tim.Long@tn.gov,
1,BH01722,9,Jimmy,,Fitz,,,0,12,7312537343,,,Jimmy.Fitz@tn.gov,
1,BH01723,9,Kenny,,Beard,,,0,12,7312537343,,,Kenny.Beard@tn.gov,
1,BH01724,9,Kyle,K,Lock,,,0,12,7314235725,,,Kyle.Lock@tn.gov,
0,BH01801,9,David,,Flowers,,,0,0,7315933741,,,David.Flowers@tn.gov,
4,BH01802,9,Chris,,Humphrey,,,0,131,4235668557,,,Chris.Humphrey@tn.gov,
2,BH01803,9,Andy,,Rush,,,0,47,6157816581,,,Andy.Rush@tn.gov,
1,BH01804,9,Hunter,,Henley,,,0,12,7317843889,,,Hunter.Henley@tn.gov,
2,BH01805,9,David,,Roddy,,,0,47,6157816570,,,David.Roddy@tn.gov,
2,BH01806,9,Lyle,,Mason,,,0,47,6158376763,,,Lyle.Mason@tn.gov,
3,BH01807,9,Mark,,Thurman,,,0,82,9314563074,,,Mark.Thurman@tn.gov,
3,BH01808,9,Gary,,Black,,,0,82,8002626704,,,Gary.Black@tn.gov,
4,BH01809,9,Bob,,Robertson,,,0,131,8003320900,,,Bob.Robertson@tn.gov,
4,BH01810,9,Duane,,Oyer,,,0,131,8658285263,,,Duane.Oyer@tn.gov,
2,BH01813,9,Brian,T,James,,,0,47,6159863046,,,Brian.James@tn.gov,
2,BH01815,9,Tommy,,Edwards,,,0,47,9318404042,,,Tommy.Edwards@tn.gov,
5,BH01817,9,Freddy,,Couch,,,0,156,8006247406,,,Freddy.Couch@tn.gov,
3,BH01819,9,Shannon,A,Young,,,0,82,8657554845,,,Shannon.A.Young@tn.gov,
3,BH01820,9,Jim,,Lane,,,0,82,9314562479,,,Jim.Lane@tn.gov,
2,BH01821,9,Phillip,L,Smith,,,0,47,9317625749,,,Phillip.L.Smith@tn.gov,
2,BH01822,9,Dan,,Lavacot,,,0,47,6154446673,,,Dan.Lavacot@tn.gov,
3,BH01823,9,James,,Douglas,,,0,82,8002626704,,,James.Douglas@tn.gov,
3,BH01824,9,Mike,,Jolley,,,0,82,9314563075,,,Mike.Jolley@tn.gov,
1,BH01825,9,Jason,,Maxedon,,,0,12,7314235725,,,Jason.Maxedon@tn.gov,
4,BH01826,9,Stan,,Stooksbury,,,0,131,4235668557,,,Stan.Stooksbury@tn.gov,
1,BH01828,9,Paul,,Brown,,,0,12,7312537343,,,Paul.Brown@tn.gov,
3,BH01829,9,Roy,,Cannon,,,0,82,9314563076,,,Roy.Cannon@tn.gov,
4,BH01830,9,Tommy,,Whitehead,,,0,131,4235222452,8653861964,,Tommy.Whitehead@tn.gov,
3,BH01831,9,David,,Whitehead,,,0,82,4238846767,4236936799,,David.Whitehead@tn.gov,
4,BH01832,9,Bill,A,Smith,,,0,131,8658568691,,,Bill.A.Smith@tn.gov,
1,BH01833,9,Alan,A,Jones,,,0,12,7314235725,,,Alan.A.Jones@tn.gov,
2,BH01834,9,Stacy,,Surgenor,,,0,47,9319378381,9319935430,,Stacy.Surgenor@tn.gov,
2,BH01835,9,Pam,,McDonald,,,0,47,6153325090,,,Pam.McDonald@tn.gov,
0,BH01838,9,Shawn,,Karns,,,0,0,,,,Shawn.Karns@tn.gov,
0,BH01839,9,Al,,Pollock,,,0,0,,,,Al.Pollock@tn.gov,
3,BH01840,9,Travis,,Scott,,,0,82,,,,Travis.Scott@tn.gov,
5,BH01841,9,Larry,,Armstrong,,,0,156,7317495587,7312939015,,Larry.Armstrong@tn.gov,
2,BH01843,9,Chris,A,Cole,,,0,47,9317629409,,,Chris.A.Cole@tn.gov,
5,BH01844,9,Karl,,Kilmer,,,0,156,,,,Karl.Kilmer@tn.gov,
5,BH01845,9,Rusty,,Boles,,,0,156,,,,Rusty.Boles@tn.gov,
4,BH01846,9,Brent,,Harrison,,,0,131,4236936839,,,Brent.Harrison@tn.gov,
4,BH01847,10,Edmond,,Randolph,,,0,131,4235877037,,,Edmond.Randolph@tn.gov,
4,BH01848,9,Joe,,Durnin,,,0,131,8657554997,,,Joe.Durnin@tn.gov,
4,BH01849,9,Danny,,Akins,,,0,131,,,,Danny.Akins@tn.gov,
1,BH01850,9,Jeff,,Martin,,,0,12,,,,Jeff.Martin@tn.gov,
3,BH01851,9,Chris,,Simpson,,,0,82,9314563077,,,Chris.Simpson@tn.gov,
2,BH01852,9,Wes,,Winton,,,0,47,9319676101,,,Wes.Winton@tn.gov,
3,BH01853,9,Mike,,Thompson,,,0,82,,,,Mike.Thompson@tn.gov,
1,BH01854,9,David,,Ulderich,,,0,12,7314235725,,,David.Ulderich@tn.gov,
4,BH01855,9,Joe,,Elkins,,,0,131,4235621785,,,Joe.Elkins@tn.gov,
1,BH01856,9,Billy,,Coffman,,,0,12,7314235725,,,Billy.Coffman@tn.gov,
0,BH01857,9,John,,SevierRange,,,0,0,8655946279,,,John.SevierRange@tn.gov,
4,BH01858,9,Dwight,,Burnette,,,0,131,8655946279,,,Dwight.Burnette@tn.gov,
2,BH01859,9,SRHEC,,Range,,,0,47,6156418896,,,SRHEC.Range@tn.gov,
3,BH01860,9,Rob,,Klippel,,,0,82,9314849571,,,Rob.Klippel@tn.gov,
1,BH01861,9,Michael,A,Clark,,,0,12,7314235725,,,Michael.A.Clark@tn.gov,
2,BH01862,9,Jeff,,Sanders,,,0,47,,,,Jeff.Sanders@tn.gov,
5,BH01863,9,Matt,,Majors,,,0,156,6157815271,4236936852,,Matt.Majors@tn.gov,
3,BH01864,9,Burton,,Capps,,,0,82,4236936831,4236187455,,Burton.Capps@tn.gov,
3,BH01865,9,Brian,,Letner,,,0,82,4234761404,4236936864,,Brian.Letner@tn.gov,
2,BH01866,9,Eric,E,Tummins,,,0,47,6157816581,,,Eric.Tummins@tn.gov,
2,BH01867,9,Mark,-,Forkum,,,0,47,6157816581,,,Mark.Forkum@tn.gov,
3,BH01868,9,Michael,,Buckner,,,0,82,,4236936842,4238877078,Michael.Buckner@tn.gov,
3,BH01869,9,Thomas,,Jaynes,,,0,82,9314563078,,,Thomas.Jaynes@tn.gov,
3,BH01871,9,Jeff,,Bishop,,,0,82,8002626704,,,Jeff.Bishop@tn.gov,
3,BH01872,9,Chris,,Combs,,,0,82,4233262276,,,Chris.Combs@tn.gov,
3,BH01873,9,Vincent,,Pontello,,,0,82,9314563079,,,Vincent.Pontello@tn.gov,
3,BH01874,9,Jason,,Jackson,,,0,82,8655900199,,,Jason.Jackson@tn.gov,
3,BH01877,9,Bernie,,Swiney,,,0,82,,,,Bernie.Swiney@tn.gov,
1,BH01878,9,Chris,,Park,,,0,12,9012133124,,,Chris.Park@tn.gov,
1,BH01879,9,Clay,,Boyd,,,0,12,9012133124,,,Clay.Boyd@tn.gov,
5,BH01880,9,Dwayne,,Robinson,,,0,156,,,,Dwayne.Robinson@tn.gov,
5,BH01881,9,Kessler,,Yoder,,,0,156,,,,Kessler.Yoder@tn.gov,
5,BH01882,9,Don,,Lee,,,0,156,6157922926,,,Don.Lee@tn.gov,
3,BH01883,9,Timothy,,Gothard,,,0,82,9315282999,,,Timothy.Gothard@tn.gov,
5,BH01884,9,Todd,,Maszaros,,,0,156,6157816511,,,Todd.Maszaros@tn.gov,
1,BH01885,9,Daniel,,Stanfield,,,0,12,7314235728,7316977986,,Daniel.Stanfield@tn.gov,
2,BH01886,9,Jeff,,Skelton,,,0,47,6157816750,,,Jeff.Skelton@tn.gov,
3,BH01887,9,Clint,,Smith,,,0,82,9314849571,,,Clint.Smith@tn.gov,
3,BH01888,9,Joey,,Wray,,,0,82,9314563080,9316076659,,Joey.Wray@tn.gov,
1,BH01889,9,Michael,D,Parker,,,0,12,7314235725,,,Michael.D.Parker@tn.gov,
4,BH01890,9,Rob,,Theurer,,,0,131,4232532661,,,Rob.Theurer@tn.gov,
1,BH01892,9,James,R,Cole,,,0,12,7315930588,,,James.R.Cole@tn.gov,
3,BH01893,9,Perry,,Massengill,,,0,82,4234761404,,,Perry.Massengill@tn.gov,
3,BH01894,9,Brad,,Daugherty,,,0,82,4234761404,,,Brad.Daugherty@tn.gov,
0,BH01895,9,Brad,,Jackson,,,0,0,7314413122,,,Brad.Jackson@tn.gov,
2,BH01896,9,Todd,,Allen,,,0,47,6157700441,6152935793,,Todd.Allen@tn.gov,
3,BH01897,9,Mike,,Beaty,,,0,82,,,,Mike.Beaty@tn.gov,
2,BH01898,9,Bob,,Lowery,,,0,47,6157816581,,,Bob.Lowery@tn.gov,
2,BH01899,9,Jereme,,Odom,,,0,47,,,,Jereme.Odom@tn.gov,
2,BH01900,9,Jim,,Dooley,,,0,47,6153883245,,,Jim.Dooley@tn.gov,
5,BH01904,9,Cecil,,Davis,,,0,156,6157816584,,,Cecil.Davis@tn.gov,
5,BH01907,9,Keith,,Nash,,,0,156,6157816618,,,Keith.Nash@tn.gov,
5,BH01910,9,Bruce,E,Brown,,,0,156,6157816640,,,Bruce.E.Brown@tn.gov,
2,BH01912,9,Eric,,Anderson,,,0,47,6157886431,,,Eric.Anderson@tn.gov,
5,BH01919,9,Bryan,,Sans,,,0,156,6158376015,,,Bryan.Sans@tn.gov,
5,BH01926,9,Melinda,,Raymond,,,0,156,6157816500,,,Melinda.Raymond@tn.gov,
5,BH01927,9,Jason,,Harmon,,,0,156,6157816511,,,Jason.Harmon@tn.gov,
1,BH01930,9,Phillip,,Jessie,III,,0,12,9012133124,,,Phillip.Jessie@tn.gov,
5,BH01931,9,Mary,D,Allen,,,0,156,6157816580,,,Mary.D.Allen@tn.gov,
1,BH01932,9,Edward,,Gover,,,0,12,7314235725,,,Edward.Gover@tn.gov,
5,BH01933,9,Brian,,Flock,,,0,156,6157816569,,,Brian.Flock@tn.gov,
3,BH01934,9,Brandon,W,Selvog,,,0,82,6153429305,,,Brandon.W.Selvog@tn.gov,
3,BH01935,9,Brandon,P,Geesling,,Pete,0,82,6153394704,,,Brandon.P.Geesling@tn.gov,
2,BH01936,9,Mark,V,Sharp,,,0,47,6157816524,,,Mark.V.Sharp@tn.gov,
2,BH01937,9,Matt,,Brian,,,0,47,6157816581,,,Matt.Brian@tn.gov,
2,BH01938,10,Wayne,,Sanders,,,0,47,9319686252,,,Wayne.Sanders@tn.gov,
2,BH01939,9,David,,Lowe,,,0,47,9314569699,,,David.Lowe@tn.gov,
2,BH01940,9,Burt,,Wells,,,0,47,9319676101,,,Burt.Wells@tn.gov,
5,BH01941,10,Eddy,,Thomas,,,0,156,6157816608,,,Eddy.Thomas@tn.gov,
5,BH01942,9,Jack,,Winfrey,,,0,156,6157816608,,,Jack.Winfrey@tn.gov,
4,BH01943,9,Michael,,Cabe,,,0,131,,,,Michael.Cabe@tn.gov,
5,BH01944,10,Linda,F,Hudson,,,0,156,6157816608,,,Linda.F.Hudson@tn.gov,
5,BH01945,9,Linda,K,Turnbo,,,0,156,6157816608,,,Linda.K.Turnbo@tn.gov,
5,BH01946,9,Mike,L,James,,,0,156,6157816608,,,Mike.L.James@tn.gov,
2,BH01949,9,David,H,Robertson,,,0,47,6153429302,,,David.H.Robertson@tn.gov,
2,BH01950,9,Tommy,,Wannyn,,,0,47,6153429302,,,Tommy.Wannyn@tn.gov,
5,BH01951,9,Chuck,,Yoest,,,0,156,6157816615,,,Chuck.Yoest@tn.gov,
2,BH01952,9,Jonathan,,Lee,,,0,47,6157886443,,,Jonathan.Lee@tn.gov,
2,BH01953,9,Robert,,Reedy,,Ken,0,47,6157816627,,,Robert.Reedy@tn.gov,
2,BH01954,9,David,,Crane,,,0,47,6153398688,,,David.Crane@tn.gov,
2,BH01956,9,Leith,,Konyndyk,,,0,47,6153393694,,,Leith.Konyndyk@tn.gov,
2,BH01957,9,Larry,,Thurston,,,0,47,6153429304,,,Larry.Thurston@tn.gov,
2,BH01958,9,Brandon,W,Taylor,,,0,47,6153086654,,,Brandon.W.Taylor@tn.gov,
3,BH01959,9,Joe,,Fortner,,,0,82,6152945440,,,Joe.Fortner@tn.gov,
2,BH01960,9,Rusty,,Thompson,,,0,47,9318818241,4233128355,,Rusty.Thompson@tn.gov,
4,BH01961,9,Todd,,Weaver,,,0,131,4235877037,6153321445,,Todd.Weaver@tn.gov,
2,BH01962,9,John,H,Parks,,,0,47,6155090523,,,John.H.Parks@tn.gov,
1,BH01971,9,Clay,,Riley,,,0,12,7314235725,,,Clay.Riley@tn.gov,
1,BH01972,9,Scott,S,Mansfield,,,0,12,7314235725,,,Scott.Mansfield@tn.gov,
1,BH01973,9,Kevin,,Hoofman,,,0,12,7314235725,6153396288,,Kevin.Hoofman@tn.gov,
1,BH01974,9,Jeff,,Peach,,,0,12,9012373179,,,Jeff.Peach@tn.gov,
1,BH01975,9,Ray,,McMillen,,,0,12,8003723428,,,Ray.McMillen@tn.gov,
1,BH01976,9,Jake,,Yoes,,,0,12,7314235725,,,Jake.Yoes@tn.gov,
1,BH01977,9,Roy,,Logan,,,0,12,8003725725,,,Roy.Logan@tn.gov,
1,BH01979,9,Ronnie,,Capps,,,0,12,7314317135,,,Ronnie.Capps@tn.gov,
1,BH01980,9,Michael,,Thompson,,,0,12,8003723928,,,Michael.Thompson@tn.gov,
1,BH01981,9,Ty,,Inmon,,,0,12,,,,Ty.Inmon@tn.gov,
1,BH01982,9,Bubba,,Spencer,,,0,12,6153086981,,,Bubba.Spencer@tn.gov,
1,BH01983,9,Chuck,,Casey,,,0,12,7312939603,,,Chuck.Casey@tn.gov,
1,BH01984,9,Rob,,Colvin,,,0,12,6154835213,,,Rob.Colvin@tn.gov,
3,BH01985,9,Scott,,Reasor,,,0,82,6153395586,,,Scott.Reasor@tn.gov,
1,BH01986,9,Wade,,Hendren,,,0,12,8003723928,,,Wade.Hendren@tn.gov,
1,BH01987,9,Jeremy,,Dennison,,,0,12,7314235725,,,Jeremy.Dennison@tn.gov,
1,BH01988,9,Rich,,Stockdale,,,0,12,7314235725,,,Rich.Stockdale@tn.gov,
1,BH01989,9,Josh,,Roberson,,,0,12,7314235725,,,Josh.Roberson@tn.gov,
1,BH01992,9,Arlene,,Loudermilk,,,0,12,7314235725,,,Arlene.Loudermilk@tn.gov,
1,BH01993,9,Sam,,Bedwell,,,0,12,7314235725,,,Sam.Bedwell@tn.gov,
1,BH01994,9,Ken,R,Smith,,,0,12,7314235725,,,Ken.R.Smith@tn.gov,
5,BH01995,9,Eunica,Y,Bush,,,0,156,6157816659,,,Eunica.Y.Bush@tn.gov,
0,BH01997,9,TWRA,,Harvests,,,0,0,,,,TWRA.Harvests@tn.gov,
1,BH01998,9,Tom,,Pratt,,,0,12,7317843889,,,Tom.Pratt@tn.gov,
0,BH01999,9,Twra,,Notifications,,,0,0,,,,Twra.Notifications@tn.gov,
0,BH01ASK,9,Ask,,TWRA,,,0,0,6157816538,,,Ask.TWRA@tn.gov,
0,BH01HED,9,Stones River,,Huntered,,,0,0,,,,StonesRiver.Huntered@tn.gov,
5,BH01LGL,9,Lisa,,Crawford,,,0,156,6157816606,,,Lisa.Crawford@tn.gov,
0,BH01MKT,9,Tnwildlife,,Info,,,0,0,,,,Tnwildlife.Info@tn.gov,
1,BH02000,9,Ricky,,Voyles,,,0,12,9018500378,,,Ricky.Voyles@tn.gov,
2,BH02001,9,Mark,,Ventura,,,0,47,6154837305,,,Mark.Ventura@tn.gov,
5,BH02005,9,Betsy,,Uldrich,,,0,156,6157816566,,,Betsy.Uldrich@tn.gov,
5,BH02009,9,Jeff,,McMillin,,,0,156,4239681933,,,Jeff.McMillin@tn.gov,
5,BH02011,9,Julie,,Schuster,,,0,156,6156624843,,,Julie.Schuster@tn.gov,
2,BH02012,9,Doug,,Lowery,,,0,47,6153393694,,,Doug.Lowery@tn.gov,
0,BH02013,9,David,,Watson,,,0,0,4237561331,,,David.Watson@tn.gov,
5,BH02016,9,Ed,,Poolos,,,0,156,2052691018,,,Ed.Poolos@tn.gov,
2,BH02017,9,Stacy,,Stevenson,,,0,47,6153429303,,,Stacy.Stevenson@tn.gov,
2,BH02018,9,Tina,,Yoakum,,,0,47,6157816581,,,Tina.Yoakum@tn.gov,
0,BH02020,9,Meredith,,Hoos,,,0,0,6157816643,,,Meredith.Hoos@tn.gov,
5,BH02021,9,Richell,,Breakwell,,,0,156,6157816599,,,Richell.Breakwell@tn.gov,
2,BH02022,9,Johnny,,Martin,,,0,47,9319676101,,,Johnny.Martin@tn.gov,
5,BH02023,9,Damon,,Hollis,,,0,156,6155046375,,,Damon.Hollis@tn.gov,
1,BH02024,9,Jay,,Corbitt,,,0,12,,,,Jay.Corbitt@tn.gov,
2,BH02025,9,Philip,,McDonald,,,0,47,9317629409,,,Philip.McDonald@tn.gov,
5,BH02028,9,Cathy,,Markwell,,,0,156,6157815270,,,Cathy.Markwell@tn.gov,
3,BH02029,9,Dustin,,Buttram,,,0,82,9314849571,,,Dustin.Buttram@tn.gov,
2,BH02030,9,Kevin,,Edmonson,,,0,47,6157816549,9012333523,,Kevin.Edmonson@tn.gov,
2,BH02031,9,Cary,A,Counts,,,0,47,9319378381,,,Cary.Counts@tn.gov,
2,BH02032,9,Nathan,D,Self,,,0,47,9317625749,,,Nathan.Self@tn.gov,
2,BH02033,9,Johnny,C,Whaley,,,0,47,9316915389,,,Johnny.Whaley@tn.gov,
2,BH02034,9,Danny,R,Ferrell,,,0,47,9314091765,,,Danny.Ferrell@tn.gov,
2,BH02035,9,Trey,,Clanton,,Trey,0,47,9315809742,,,Trey.Clanton@tn.gov,
2,BH02036,9,Glenn,O,Brian,,,0,47,9318579080,,,Glenn.Brian@tn.gov,
2,BH02037,9,Jesse,O,Taylor,,,0,47,9318579080,6159819003,,Jesse.Taylor@tn.gov,
2,BH02039,9,Craig,A,Myers,,,0,47,6157816581,,,Craig.Myers@tn.gov,
2,BH02043,9,Steven,C,Day,,,0,47,9319378381,,,Steven.Day@tn.gov,
2,BH02044,9,Wade,,Byford,,Wade,0,47,6153556492,,,Wade.Byford@tn.gov,
2,BH02045,9,Darrell,,Bernd,,,0,47,9312056350,9312056350,9312056350,Darrell.Bernd@tn.gov,
0,BH02049,9,Mark,,Cook,,,0,0,6153822428,,,Mark.Cook@tn.gov,
2,BH02050,9,Dustin,,Deaton,,,0,47,6157816581,,,Dustin.Deaton@tn.gov,
2,BH02051,9,Clint,,Newton,,,0,47,6157816622,,,Clint.Newton@tn.gov,
2,BH02053,9,John,,Alkenburg,,,0,47,6157816549,,,John.Alkenburg@tn.gov,
2,BH02054,9,Michael,,Bobel,,,0,47,6154446673,,,Michael.Bobel@tn.gov,
0,BH02055,9,Steven,,Swaw,,,0,0,,,,Steven.Swaw@tn.gov,
0,BH02056,9,Glen,,Rogers,,,0,0,6154446673,,,Glen.Rogers@tn.gov,
0,BH02057,9,Rodney,,Woodson,,,0,0,6154446673,6154170805,6154170805,Rodney.Woodson@tn.gov,
2,BH02058,9,Ryne,R,Goats,,,0,47,,,,Ryne.Goats@tn.gov,
5,BH02059,9,Kathryn,,Threet,,,0,156,6158374247,,,Kathryn.Threet@tn.gov,
5,BH02061,9,Krystal,,Couture,,,0,156,,,,Krystal.Couture@tn.gov,
2,BH02062,9,Wayne,,Pylant,,,0,47,9318404042,,,Wayne.Pylant@tn.gov,
2,BH02063,9,Tanner,,Romsdal,,,0,47,,,,Tanner.Romsdal@tn.gov,
2,BH02064,9,Kaleb,,Stratton,,,0,47,6155228149,,,Kaleb.Stratton@tn.gov,
2,BH02065,9,James,,Askins,,,0,47,6157816622,,,James.Askins@tn.gov,
2,BH02066,9,Colt,,Littrell,,,0,47,6157629409,,,Colt.Littrell@tn.gov,
2,BH02067,9,Shawn,,Honea,,,0,47,9319378381,,,Shawn.Honea@tn.gov,
0,BH02068,9,Jamey,,Baggett,,,0,0,,,,Jamey.Baggett@tn.gov,
2,BH02069,9,Bob,,Spiegl,,,0,47,6154446673,,,Bob.Spiegl@tn.gov,
2,BH02070,9,Tony,,Self,,,0,47,9317625749,,,Tony.Self@tn.gov,
2,BH02071,9,Ben,,Garland,,,0,47,9317625749,,,Ben.Garland@tn.gov,
0,BH02072,9,Doug,,Martin,,,0,0,,,,Doug.Martin@tn.gov,
2,bh02073,9,Robert,,McVay,,,0,47,,,,Robert.McVay@tn.gov,
0,BH02074,9,Gordan,,Shirley,,,0,0,,,,Gordan.Shirley@tn.gov,
2,BH02075,9,Anthony,,Bow,,,0,47,,,,Anthony.Bow@tn.gov,
2,BH02076,9,Henry,,Sanders,,,0,47,9319686215,,,Henry.Sanders@tn.gov,
2,BH02077,9,Carl,,McCoy,,,0,47,6153069949,,,Carl.McCoy@tn.gov,
2,BH02078,9,Melvin,,McLerran,,,0,47,6157816622,,,Melvin.McLerran@tn.gov,
2,BH02079,9,Christopher,,Burgett,,,0,47,6157816622,,,Christopher.Burgett@tn.gov,
0,BH02080,9,Kesley,,Isenberg,,,0,0,6154784082,,,Kesley.Isenberg@tn.gov,
2,BH02081,9,Nathan,,Karch,,,0,47,,6154899718,,Nathan.Karch@tn.gov,
2,BH02082,9,Evan,,Gaskin,,,0,47,,6155710327,,Evan.Gaskin@tn.gov,
2,BH02083,9,Danielle,,Neal,,,0,47,9312616416,,,Danielle.Neal@tn.gov,
2,BH02084,9,Brian,,Tomlinson,,,0,47,6154446673,,,Brian.Tomlinson@tn.gov,
3,BH03001,9,Rick,P,Larnerd,,,0,82,5703964845,,,Rick.Larnerd@tn.gov,
3,BH03002,9,Derrick,,Gray,,,0,82,,,,Derrick.Gray@tn.gov,
3,BH03011,9,Jeff,,Womac,,Jeff,0,82,4236143018,,,Jeff.Womac@tn.gov,
3,BH03012,9,Felix,,Fugate,,,0,82,4234761404,,,Felix.Fugate@tn.gov,
3,BH03015,9,Tommy,,Stockling,,,0,82,8002626704,9316442496,,Tommy.Stockling@tn.gov,
3,BH03016,9,Tracy,,Edgemon,,,0,82,4233344788,,,Tracy.Edgemon@tn.gov,
3,BH03101,9,Casey,,Mullen,,,0,82,9314849571,,,Casey.Mullen@tn.gov,
3,BH03102,9,Travis,,Buchanan,,,0,82,9314849571,,,Travis.Buchanan@tn.gov,
3,BH03103,9,Doug,,Lamb,,,0,82,9314849571,,,Doug.Lamb@tn.gov,
3,BH03104,9,Johnny,,Poston,,,0,82,9314849571,,,Johnny.Poston@tn.gov,
3,BH03105,9,Andy,,Barlow,,,0,82,9314849571,,,Andy.Barlow@tn.gov,
3,BH03106,9,Tim,,Singleton,,,0,82,9314849571,,,Tim.Singleton@tn.gov,
3,BH03107,9,Craig,,Norris,,,0,82,9314849571,,,Craig.Norris@tn.gov,
3,BH03108,9,Bill,,Moulton,,,0,82,9314849571,,,Bill.Moulton@tn.gov,
3,BH03109,9,Tom,,Gothard,,,0,82,9314849571,,,Tom.Gothard@tn.gov,
3,BH03110,9,David,,Shelby,,,0,82,4233659166,,,David.Shelby@tn.gov,
3,BH03120,10,Allen,,York,,,0,82,9314849571,,,Allen.York@tn.gov,
3,BH03240,9,Barry,A,Baird,,,0,82,4236936787,,,Barry.A.Baird@tn.gov,
3,BH03241,9,Andrew,,Ward,,,0,82,9314849571,,,Andrew.Ward@tn.gov,
3,BH03303,9,Greg,,Atchley,,,0,82,,,,Greg.Atchley@tn.gov,
3,BH03304,9,Scotty,,Webb,,,0,82,9317882255,,,Scotty.Webb@tn.gov,
3,BH03305,9,Jarod,,Coxey,,,0,82,9314849571,,,Jarod.Coxey@tn.gov,
3,BH03310,9,Christy,A,Twilla,,,0,82,9314849571,,,Christy.A.Twilla@tn.gov,
4,BH03311,9,Gene,,Parker,,,0,131,4235877037,,,Gene.Parker@tn.gov,
3,BH03312,9,Chris,,Morton,,,0,82,4234761404,,,Chris.Morton@tn.gov,
1,BH03313,9,Nick,G,Luper,,,0,12,6155983497,,,Nick.G.Luper@tn.gov,
3,BH03315,9,Freddie,,Kelley,,,0,82,4238846767,,,Freddie.Kelley@tn.gov,
3,BH03316,9,Steve,,Massengill,,,0,82,4238876767,,,Steve.Massengill@tn.gov,
3,BH03317,9,Diana,,Layton,,,0,82,9314563081,,,Diana.Layton@tn.gov,
3,BH03318,9,Andy,,Lawson,,Andy,0,82,9314849571,,,Andy.Lawson@tn.gov,
3,BH03319,9,Jeff,H,Allen,,,0,82,8002626704,9312679606,,Jeff.Allen@tn.gov,
3,BH03320,9,Chris,R,Rice,,,0,82,4233090574,,,Chris.Rice@tn.gov,
3,BH03322,9,Brandon,J,Wear,,,0,82,4236936851,4236936851,,Brandon.Wear@tn.gov,
3,BH03323,9,Fred,,Majors,,Fred,0,82,4236182102,,,Fred.Majors@tn.gov,
3,BH03324,9,Tad,,Roberts,,Tad,0,82,4236180474,,,Tad.Roberts@tn.gov,
3,BH03325,9,Jon,T,Ellis,,,0,82,4234761404,,,Jon.Ellis@tn.gov,
3,BH03326,9,Keith,,Emery,,,0,82,4236143018,,,Keith.Emery@tn.gov,
3,BH03327,9,Paul,,Stockton,,,0,82,9319353280,,,Paul.Stockton@tn.gov,
3,BH03329,9,Will,,Collier,,,0,82,9314849571,,,Will.Collier@tn.gov,
3,BH03330,9,Daryl,,Cook,,,0,82,9314849571,,,Daryl.Cook@tn.gov,
3,BH03331,9,Wayne,,Cox,,Wayne,0,82,9314849571,,,Wayne.Cox@tn.gov,
3,BH03332,9,Jessica,A,Matoy,,,0,82,4232532661,,,Jessica.A.Matoy@tn.gov,
3,BH03333,9,Kelsey,,Matthews,,,0,82,9314563083,,,Kelsey.Matthews@tn.gov,
3,BH03334,9,Kevin,,Reagan,,,0,82,9315106389,,,Kevin.Reagan@tn.gov,
3,BH03335,9,Heath,,Casteel,,,0,82,9314562479,,,Heath.Casteel@tn.gov,
3,BH03336,9,Brian,,Burgess,,,0,82,9314562479,,,Brian.Burgess@tn.gov,
3,BH03337,9,Richard,,Underwood,,,0,82,9319353280,,,Richard.Underwood@tn.gov,
3,BH03338,9,Mime,,Barnes,,,0,82,9314563068,,,Mime.Barnes@tn.gov,
3,BH03339,9,Jerry,,Hedgecoth,,,0,82,9314849571,,,Jerry.Hedgecoth@tn.gov,
3,BH03340,9,Daniel,,Istvanko,,,0,82,9314849571,,,Daniel.Istvanko@tn.gov,
3,BH03341,9,Travis,,Aytes,,,0,82,,,,Travis.Aytes@tn.gov,
4,BH04001,9,David,,Albright,,,0,131,4235877037,,,David.Albright@tn.gov,
4,BH04002,9,Travis,,Snapp,,,0,131,8654575135,,,Travis.Snapp@tn.gov,
4,BH04003,9,Bryon,,Franklin,,,0,131,,,,Bryon.Franklin@tn.gov,
4,BH04004,9,Landon,L,Reeves,,,0,131,,,,Landon.Reeves@tn.gov,
4,BH04100,9,Ken,,Cutsinger,,,0,131,4236936856,,,Ken.Cutsinger@tn.gov,
4,BH04101,9,Kim,,Coldwell,,,0,131,4235877037,,,Kim.Coldwell@tn.gov,
4,BH04102,9,Jason,,Lankford,,,0,131,4235877037,,,Jason.Lankford@tn.gov,
4,BH04103,9,Rick,,Roberts,,,0,131,4235877037,,,Rick.Roberts@tn.gov,
4,BH04104,9,Jeff,,Webb,,,0,131,4235877037,8653007796,,Jeff.Webb@tn.gov,
4,BH04106,9,Jerry,,Short,,,0,131,8003320900,6153429294,4237335190,Jerry.Short@tn.gov,
4,BH04107,9,Chester,,Slagle,,,0,131,4235877037,,,Chester.Slagle@tn.gov,
4,BH04108,9,Bill,,Swaggerty,,,0,131,4235877037,,,Bill.Swaggerty@tn.gov,
4,BH04110,9,Jesse,,Jarnigan,,,0,131,4235877037,,,Jesse.Jarnigan@tn.gov,
4,BH04111,9,Greg,T,Julian,,,0,131,4235877037,,,Greg.T.Julian@tn.gov,
4,BH04200,9,Jeff,,Pearce,,,0,131,4235877037,,,Jeff.Pearce@tn.gov,
4,BH04201,9,Curt,,Henderson,,,0,131,4235877037,,,Curt.Henderson@tn.gov,
4,BH04202,9,Anthony,,Chitwood,,,0,131,4235877037,,,Anthony.Chitwood@tn.gov,
3,BH04203,9,Joe,J,Pike,,,0,82,9314849571,4236936644,,Joe.Pike@tn.gov,
3,BH04204,9,Kip,K,Kite,,,0,82,4236936649,,,Kip.Kite@tn.gov,
4,BH04205,9,Joe,,Everett,,,0,131,4235877037,,,Joe.Everett@tn.gov,
4,BH04206,9,David,,Sexton,,,0,131,4235877037,,,David.Sexton@tn.gov,
4,BH04207,9,Wayne,,Rich,,Wayne,0,131,4235877037,,,Wayne.Rich@tn.gov,
4,BH04208,9,Shelley,,Hammonds,,,0,131,4235222455,4232370960,,Shelley.Hammonds@tn.gov,
4,BH04300,9,Nathan,,Ripley,,Nathan,0,131,4235877037,,,Nathan.Ripley@tn.gov,
4,BH04301,9,Chris,,Seay,,,0,131,4235877037,,,Chris.Seay@tn.gov,
4,BH04302,9,David,,Crum,,,0,131,4235877037,,,David.Crum@tn.gov,
4,BH04303,9,Jeff,,Prater,,,0,131,4235877037,,,Jeff.Prater@tn.gov,
4,BH04304,9,Chad,,Gann,,,0,131,4235877037,,,Chad.Gann@tn.gov,
4,BH04305,9,Marvin,M,Reeves,,,0,131,4235877037,,,Marvin.Reeves@tn.gov,
4,BH04306,9,James,O,McAfee,,,0,131,4235877037,,,James.O.McAfee@tn.gov,
4,BH04307,9,Shaun,,Ramsey,,,0,131,4235877037,,,Shaun.Ramsey@tn.gov,
4,BH04309,9,Bryan,,Kegley,,Bryan,0,131,4235877037,,,Bryan.Kegley@tn.gov,
4,BH04310,9,Clint,A,Smith,,,0,131,4235877037,,,Clint.A.Smith@tn.gov,
4,BH04311,9,Sterling,,Daniels,,,0,131,4235877037,,,Sterling.Daniels@tn.gov,
4,BH04312,9,Dennis,,Ward,,,0,131,4235877037,,,Dennis.Ward@tn.gov,
4,BH04313,9,Roy,E,Smith,,,0,131,4235877037,,,Roy.E.Smith@tn.gov,
4,BH04315,9,Corey,,Jones,,,0,131,4235877037,,,Corey.Jones@tn.gov,
4,BH04317,9,Matt,,Swecker,,,0,131,4236936693,,,Matt.Swecker@tn.gov,
4,BH04318,9,Richard,,Markland,,,0,131,4235877037,,,Richard.Markland@tn.gov,
4,BH04319,9,Ricky,,Hollifield,,,0,131,4235877037,,,Ricky.Hollifield@tn.gov,
4,BH04320,9,Gary,,Loucks,,,0,131,8003320900,,,Gary.Loucks@tn.gov,
4,BH04321,9,Paul,,Shaw,,,0,131,8003320900,,,Paul.Shaw@tn.gov,
4,BH04322,9,Russell,R,Young,,,0,131,8003320900,,,Russell.R.Young@tn.gov,
4,BH04323,9,Charles,,Hensley,,,0,131,8003320900,,,Charles.Hensley@tn.gov,
4,BH04324,9,Darrell,,Hill,,,0,131,8658285944,,,Darrell.Hill@tn.gov,
4,BH04325,9,Roger,,Bitz,,,0,131,6153822428,,,Roger.Bitz@tn.gov,
4,BH04327,9,Darrell,W,Griffin,,,0,131,7235877037,,,Darrell.Griffin@tn.gov,
4,BH04328,9,Dewayne,,Williams,,Dewayne,0,131,7235877037,,,Dewayne.Williams@tn.gov,
4,BH04329,9,Kyle,,Loveday,,,0,131,7235877037,,,Kyle.Loveday@tn.gov,
4,BH04330,9,Keith,,Thomas,,,0,131,4235877037,,,Keith.Thomas@tn.gov,
4,BH04331,9,Todd,,Strickenberger,,,0,131,7235877037,,,Todd.Strickenberger@tn.gov,
4,BH04332,9,Bryan,,Horton,,Bryan,0,131,4235877037,,,Bryan.Horton@tn.gov,
4,BH04333,9,Hugh,,Moore,,Hugh,0,131,4235877037,,,Hugh.Moore@tn.gov,
4,BH04334,9,Mark Landon,,Williams,,,0,131,4235877037,,,Mark.Landon.Williams@tn.gov,
4,BH04335,9,Matt,,Austin,,Matt,0,131,4235877037,,,Matt.Austin@tn.gov,
4,BH04336,9,Matt,A,Rice,,,0,131,4235877037,,,Matt.Rice@tn.gov,
4,BH04337,9,Mike,,Adams,,Mike,0,131,4235877037,,,Mike.Adams@tn.gov,
4,BH04340,9,Ray,,Bostic,,Ray,0,131,4235668557,,,Ray.Bostic@tn.gov,
4,BH04341,9,Harrison,,Cornett,,,0,131,4235877037,,,Harrison.Cornett@tn.gov,
4,BH04342,9,Kenny,,Goodman,,,0,131,,,,Kenny.Goodman@tn.gov,
4,BH04344,9,Billy,,Lagrange,,,0,131,4235877037,,,Billy.Lagrange@tn.gov,
4,BH04347,9,Ernie,,Poore,,,0,131,8654575135,,,Ernie.Poore@tn.gov,
4,BH04348,9,Bobby,K,Stooksbury,,,0,131,8654575135,,,Bobby.Stooksbury@tn.gov,
5,BH04401,9,Joy,C,Sweaney,,,0,156,6157816656,,,Joy.Sweaney@tn.gov,
4,BH04402,9,Joe,,England,,,0,131,4235668557,,,Joe.England@tn.gov,
4,BH04403,9,Charles,,Chandler,,,0,131,4235668557,8652571481,,Charles.Chandler@tn.gov,
4,BH04404,9,Dustin,J,McCubbins,,,0,131,8652783248,8653004625,,Dustin.J.McCubbins@tn.gov,
4,BH04405,9,Justin,,Walden,,,0,131,4235621785,,,Justin.Walden@tn.gov,
4,BH04406,9,John,,Hudgens,,,0,131,4235877037,,,John.Hudgens@tn.gov,
4,BH04408,9,David,S,Carpenter,,Dave,0,131,4235877037,,,David.Carpenter@tn.gov,
4,BH04410,9,Gary,,Bradley,,,0,131,4235877037,,,Gary.Bradley@tn.gov,
4,BH04411,9,Marilyn J,,Davis,,,0,131,8654575135,,,Marilyn.J.Davis@tn.gov,
4,BH04412,9,Chris,S,Ogle,,,0,131,4236936714,,,Chris.S.Ogle@tn.gov,
3,BH04413,9,Jason,J,Ramsey,,,0,82,4235877037,,,Jason.Ramsey2@tn.gov,
4,BH04417,9,Dustin,D,Burke,,,0,131,4235877037,,,Dustin.Burke@tn.gov,
4,BH04418,9,Brenden,,Marlow,,,0,131,4235877037,,,Brenden.Marlow@tn.gov,
4,BH04419,9,Roger,,Fanti,,,0,131,4235877037,,,Roger.Fanti@tn.gov,
4,BH04420,9,Chad,,Mullins,,,0,131,4235877037,,,Chad.Mullins@tn.gov,
0,BH04421,9,Rocky,S,White,,,0,0,4235877037,,,Rocky.S.White@tn.gov,
0,BH04422,9,Maxwell,H,Smith,,,0,0,4235877037,,,Maxwell.H.Smith@tn.gov,
4,BH04423,9,Ryan,,Rosier,,,0,131,,,,Ryan.Rosier@tn.gov,
4,BH04424,9,Greg,,Tester,,,0,131,4238545446,,,Greg.Tester@tn.gov,
4,BH04425,9,Luther,,Rookard,,,0,131,4235668557,,,Luther.Rookard@tn.gov,
4,BH04427,9,Caleb,,Marshall,,,0,131,4237434842,,,Caleb.Marshall@tn.gov,
4,BH04428,9,John,,Goodman,,,0,131,4235877037,,,John.Goodman@tn.gov,
4,BH04429,9,Emily,,Hartnagel,,,0,131,4235877037,,,Emily.Hartnagel@tn.gov,
2,BH04430,9,Greg,,McGinnis,,,0,47,,,,Greg.McGinnis@tn.gov,
4,BH04431,9,Floyd,,Collins,,,0,131,8658285623,,,Floyd.Collins@tn.gov,
1,BH04432,9,Rick,,Bean,,,0,12,,,,Rick.Bean@tn.gov,
4,BH04433,9,John,,Heatherly,,,0,131,,,,John.Heatherly@tn.gov,
4,BH04434,9,Tim,,Williams,,,0,131,,,,Tim.Williams@tn.gov,
4,BH04435,9,Terra,,Lamb,,,0,131,4235877037,,,Terra.Lamb@tn.gov,
4,BH04436,9,Johnathan,,Ricker,,,0,131,4235877037,,,Johnathan.Ricker@tn.gov,
0,BH04437,9,Michael,,Gross,,,0,0,4235867971,4235867971,,Michael.Gross@tn.gov,
4,BH04438,9,Chip,,Childers,,,0,131,4235668557,,,Chip.Childers@tn.gov,
4,BH04439,9,T,J,Sexton,,,0,131,4235668557,,,T.J.Sexton@tn.gov,
4,BH04440,9,Chase,,Rich,,,0,131,8652070141,,,Chase.Rich@tn.gov,
4,BH04441,9,Cody,,Young,,,0,131,8658090198,,,Cody.Young@tn.gov,
5,BH05000,9,Monty,,Halcomb,,,0,156,6157816500,,,Monty.Halcomb@tn.gov,
5,BH05001,9,Mark,,Ridings,,,0,156,6157816666,6157678611,,Mark.Ridings@tn.gov,
0,BH05003,9,Darren,,Melton,,,0,0,6157816545,,,Darren.Melton@tn.gov,
5,BH05004,9,Danielle,,Pruitt,,,0,156,6157816516,,,Danielle.Pruitt@tn.gov,
5,BH05005,9,Mark,,Clark,,,0,156,6157816530,4197046640,,Mark.Clark@tn.gov,
0,BH05008,9,Glen,,Brown,,,0,0,6157816545,,,Glen.Brown@tn.gov,
5,BH05009,9,MaryAnn,,Walker,,,0,156,6157816520,,,MaryAnn.Walker@tn.gov,
5,BH05010,9,Chris,,Richardson,,,0,156,6158376016,,,Chris.Richardson@tn.gov,
0,BH05011,9,Wanda,M,Wilson,,,0,0,6157816586,,,Wanda.M.Wilson@tn.gov,
5,BH05012,9,Roger,,Jackson,,,0,156,6157816681,,,Roger.Jackson@tn.gov,
0,BH05013,9,Scott,S,Grooms,,,0,0,6157816545,,,Scott.Grooms@tn.gov,
2,BH05015,9,Stacy,,Cooper,,,0,47,6157816545,,,Stacy.Cooper@tn.gov,
0,BH05016,9,Daniel,E,Smith,,,0,0,6157816545,,,Daniel.E.Smith@tn.gov,
0,BH05017,9,Kelvin,,Smith,,,0,0,6157816545,,,Kelvin.Smith@tn.gov,
0,BH05018,9,Tommy,,Robbins,,,0,0,6157816545,,,Tommy.Robbins@tn.gov,
5,BH05021,9,Chelsea,,Broach,,,0,156,6157816686,,,Chelsea.Broach@tn.gov,
5,BH05022,9,Amy,,Adams,,,0,156,6152535189,,,Amy.Adams@tn.gov,
5,BH05023,9,Rick,,Pharris,,,0,156,6157816605,,,Rick.Pharris@tn.gov,
5,BH05024,10,Amber,,Hills,,,0,156,6157816540,,,,
5,BH05025,9,Joe,,Benedict,,,0,156,6157816617,,,Joe.Benedict@tn.gov,
2,BH05026,9,Steve,,Maholland,,,0,47,,,,Steve.Maholland@tn.gov,
5,BH05027,9,Steve,,Tufo,,,0,156,6157816640,,,Steve.Tufo@tn.gov,
5,BH05029,9,Allen,,Carden,,,0,156,6157815106,,,Allen.Carden@tn.gov,
5,BH05030,9,Victoria,,McDaniel,,,0,156,6157816594,,,Victoria.McDaniel@tn.gov,
2,BH05031,10,Tracy,,Ross,,,0,47,6157816525,,,Tracy.Ross@tn.gov,
0,BH05032,9,Lindsay,,Gardner,,,0,0,6157815272,,,Lindsay.Gardner@tn.gov,
5,BH05033,9,Laura,,Hayes,,,0,156,6157816500,,,Laura.Hayes@tn.gov,
0,BH05034,9,Luke,,Hadden,,,0,0,4235621785,,,Luke.Hadden@tn.gov,
5,BH05035,9,Brian,,Chandler,,,0,156,6157816614,,,Brian.Chandler@tn.gov,
2,BH05036,9,Ricky,,Dowdy,,,0,47,6157816545,,,Ricky.Dowdy@tn.gov,
5,BH05037,9,Stephanie,,Brown,,,0,156,6157816561,,,Stephanie.Brown@tn.gov,
5,BH05039,9,Laurel,,Hutchins,,,0,156,,,,Laurel.Hutchins@tn.gov,
5,BH05040,9,Stacy,,Saxton,,,0,156,6157815262,,,Stacy.Saxton@tn.gov,
5,BH05041,9,Tiffany,,Jackson,,,0,156,6157816690,,,Tiffany.Jackson@tn.gov,
0,BH05042,9,Gary,,Heintz,,,0,0,6157816545,,,Gary.Heintz@tn.gov,
0,BH05043,9,Christopher,,Bowden,,,0,0,6157816545,,,Christopher.Bowden@tn.gov,
0,BH05044,9,Daniel,,Bowden,,,0,0,6157816545,,,Daniel.Bowden@tn.gov,
0,BH05045,9,Stanley,,Powell,,,0,0,6157816545,,,Stanley.Powell@tn.gov,
0,BH05046,9,Thomas,,Gibson,,,0,0,6157816545,,,Thomas.Gibson@tn.gov,
0,BH05047,9,Ben,,Wallen,,,0,0,6157816545,,,Ben.Wallen@tn.gov,
0,BH05048,9,Jerry,,Bowlin,,,0,0,6157816545,,,Jerry.Bowlin@tn.gov,
5,BH05049,9,Marty,,Ivey,,,0,156,6157816547,,,Marty.Ivey@tn.gov,
0,BH05050,9,James,,Ashby,,,0,0,6157816547,,,James.Ashby@tn.gov,
5,BH05051,9,John,,Fitzgerald,,,0,156,6157816547,,,John.Fitzgerald@tn.gov,
5,BH05052,9,Darrel,,Parson,,,0,156,6157816547,,,Darrel.Parson@tn.gov,
5,BH05053,9,Donnie,,Bowlin,,,0,156,6157816547,,,Donnie.Bowlin@tn.gov,
5,BH05055,9,Anthony,,McCalester,,,0,156,6157816545,,,Anthony.McCalester@tn.gov,
5,BH05059,9,David,,Hanni,,,0,156,6157816653,,,David.Hanni@tn.gov,
2,BH05060,9,Penny,,Carpenter,,,0,47,6157816525,,,Penny.Carpenter@tn.gov,
2,BH05061,9,Anita,,Watson-Furlow,,,0,47,6157816523,,,Anita.Watson-Furlow@tn.gov,
5,BH05062,9,Dan,,Hua,,,0,156,,5402573888,,Dan.Hua@tn.gov,
5,BH05063,9,Jeremy,,Bilby,,,0,156,,,,Jeremy.Bilby@tn.gov,
0,BH06000,9,Bill,W,Cox,,Bill,0,0,9018532264,,,Bill.Cox@tn.gov,
0,BH06002,9,Jamie,,Woodson,,,0,0,6157271545,,,Jamie.Woodson@tn.gov,
0,BH06003,9,Jim,H,Ripley,,Jim,0,0,8654532877,8658044357,,Jim.Ripley@tn.gov,
0,BH06004,10,Stout,,Clay,,Clay,0,0,4232579941,,,Stout.Clay@tn.gov,
0,BH06006,9,Connie,,King,,,0,0,9315030160,,,Connie.King@tn.gov,
0,BH06007,9,Chad,,Baker,,,0,0,,,,Chad.Baker@tn.gov,
0,BH06008,9,Jeff,W,Cook,,,0,0,6157711116,,,Jeff.W.Cook@tn.gov,
0,BH06009,9,Bill,,Swan,,,0,0,4236671060,,,Bill.Swan@tn.gov,
0,BH06010,9,Kurt,,Holbert,,,0,0,7315496801,,,Kurt.Holbert@tn.gov,
